…
与combine不同，`select`和`transform`函数返回与源数据同样数量、次序的DataFrame实例
!!! info
	combine 是对列进行操作，而select和transform是对每行进行操作
```jl
julia> select(gdf, 1:2 => cor) # 求每行中列1-2的cor函数
150×2 DataFrame
 Row │ Species         SepalLength_SepalWidth_cor
     │ String          Float64
─────┼────────────────────────────────────────────
   1 │ Iris-setosa                       0.74678
...
 150 │ Iris-virginica                    0.457228
                                  129 rows omitted

julia> transform(gdf, :Species => x -> chop.(x, head=5, tail=0))
150×6 DataFrame
 Row │ SepalLength  SepalWidth  PetalLength  PetalWidth  Species         Species_function
     │ Float64      Float64     Float64      Float64     String          SubString…
─────┼────────────────────────────────────────────────────────────────────────────────────
   1 │         5.1         3.5          1.4         0.2  Iris-setosa     setosa
...
 150 │         5.9         3.0          5.1         1.8  Iris-virginica  virginica
                                                                          129 rows omitted
```
…
