包的使用/DataFrames的使用 - Roadmap
…
julia> combine(gdf, 1:2 => cor, nrow) # 第一列求函数cor（卷积）,第二列求数量
3×3 DataFrame
 Row │ Species          SepalLength_SepalWidth_cor  nrow
     │ String           Float64                     Int64
─────┼────────────────────────────────────────────────────
   1 │ Iris-setosa                        0.74678      50
   2 │ Iris-versicolor                    0.525911     50
   3 │ Iris-virginica                     0.457228     50

与combine不同，select和transform函数返回与源数据同样数量、次序的DataFrame实例
Infocombine 是对列进行操作，而select和transform是对每行进行操作

julia> select(gdf, 1:2 => cor) # 求每行中列1-2的cor函数
150×2 DataFrame
 Row │ Species         SepalLength_SepalWidth_cor
     │ String          Float64
─────┼────────────────────────────────────────────
   1 │ Iris-setosa                       0.74678
...
 150 │ Iris-virginica                    0.457228
                                  129 rows omitted

julia> transform(gdf, :Species => x -> chop.(x, head=5, tail=0))
150×6 DataFrame
 Row │ SepalLength  SepalWidth  PetalLength  PetalWidth  Species         Species_function
     │ Float64      Float64     Float64      Float64     String          SubString…
─────┼────────────────────────────────────────────────────────────────────────────────────
   1 │         5.1         3.5          1.4         0.2  Iris-setosa     setosa
...
 150 │         5.9         3.0          5.1         1.8  Iris-virginica  virginica
                                                                          129 rows omitted
…
